[
    {
      "_id": "order1_id",
      "user_id": "user1_id",
      "transaction_date":"2023-05-18T12:00:00Z",
      "status": "Pending",
      "total": 50.99
    },
    {
      "_id": "order2_id",
      "user_id": "user2_id",
      "transaction_date": "2023-05-17T15:30:00Z",
      "status": "Completed",
      "total": 125.75
    }
  ]
  